[gd_scene load_steps=2 format=2]

[ext_resource path="res://Assets/Particles/OneShotParticles.gd" type="Script" id=1]

[node name="PlayerSparks" type="CPUParticles2D"]
rotation = -1.5708
emitting = false
amount = 1
lifetime = 2.0
one_shot = true
local_coords = false
emission_shape = 2
emission_rect_extents = Vector2( 5, 5 )
gravity = Vector2( 0, 200 )
initial_velocity = 100.0
color = Color( 1, 0.309804, 0.470588, 1 )
script = ExtResource( 1 )
