[gd_scene load_steps=16 format=2]

[ext_resource path="res://ChargeKidFiles/Levels/AuxiliaryTools/BaseLevel.tscn" type="PackedScene" id=1]
[ext_resource path="res://ChargeKidFiles/Levels/Tilemaps/Background.tscn" type="PackedScene" id=2]
[ext_resource path="res://ChargeKidFiles/Levels/Tilemaps/Parallax.gd" type="Script" id=3]
[ext_resource path="res://ChargeKidFiles/Levels/Tilemaps/Blocks.tscn" type="PackedScene" id=4]
[ext_resource path="res://ChargeKidFiles/Levels/Tilemaps/Platforms.tscn" type="PackedScene" id=5]
[ext_resource path="res://WorkshopFiles/Tilemaps/Spikes.tscn" type="PackedScene" id=6]
[ext_resource path="res://ChargeKidFiles/Actors/Player/Player.tscn" type="PackedScene" id=7]
[ext_resource path="res://WorkshopFiles/Interactables/Charge.tscn" type="PackedScene" id=8]
[ext_resource path="res://ChargeKidFiles/Levels/Messages/HoldMessage.tscn" type="PackedScene" id=9]
[ext_resource path="res://WorkshopFiles/AuxiliaryTools/CameraLimiter.tscn" type="PackedScene" id=10]
[ext_resource path="res://WorkshopFiles/AuxiliaryTools/FinishLine.tscn" type="PackedScene" id=11]
[ext_resource path="res://ChargeKidFiles/Levels/Levels/Level05.tscn" type="PackedScene" id=12]
[ext_resource path="res://ChargeKidFiles/Levels/Messages/Message.tscn" type="PackedScene" id=13]








[sub_resource type="RectangleShape2D" id=1]
extents = Vector2( 40, 16 )

[sub_resource type="RectangleShape2D" id=2]
extents = Vector2( 16, 8 )

[node name="Level04" index="0" instance=ExtResource( 1 )]

[node name="ScreenTransition" parent="." index="0"]
opening_text = "Level 4

Can you boost twice
in the air?"

[node name="LevelLimits" parent="." index="1"]
tile_data = PoolIntArray( -1, 0, 0, -65536, 0, 0, -65535, 0, 0, -65534, 0, 0, -65533, 0, 0, -65532, 0, 0, -65531, 0, 0, -65530, 0, 0, -65529, 0, 0, -65528, 0, 0, -65527, 0, 0, -65526, 0, 0, -65525, 0, 0, -65524, 0, 0, -65523, 0, 0, -65522, 0, 0, -65521, 0, 0, -65520, 0, 0, -65519, 0, 0, -65518, 0, 0, -65517, 0, 0, -65516, 0, 0, -65515, 0, 0, -65514, 0, 0, -65513, 0, 0, -65512, 0, 0, -65511, 0, 0, -65510, 0, 0, -65509, 0, 0, -65508, 0, 0, -65507, 0, 0, -65506, 0, 0, -65505, 0, 0, -65504, 0, 0, -65503, 0, 0, -65502, 0, 0, -65501, 0, 0, -65500, 0, 0, -65499, 0, 0, -65498, 0, 0, -65497, 0, 0, -65496, 0, 0, -65495, 0, 0, -65494, 0, 0, -65493, 0, 0, -65492, 0, 0, -65491, 0, 0, -65490, 0, 0, -65489, 0, 0, -65488, 0, 0, -65487, 0, 0, -65486, 0, 0, -65485, 0, 0, -65484, 0, 0, -65483, 0, 0, -65482, 0, 0, -65481, 0, 0, -65480, 0, 0, -65479, 0, 0, 65535, 0, 0, 57, 0, 0, 131071, 0, 0, 65593, 0, 0, 196607, 0, 0, 131129, 0, 0, 262143, 0, 0, 196665, 0, 0, 327679, 0, 0, 262201, 0, 0, 393215, 0, 0, 327737, 0, 0, 458751, 0, 0, 393273, 0, 0, 524287, 0, 0, 458809, 0, 0, 589823, 0, 0, 524345, 0, 0, 655359, 0, 0, 589881, 0, 0, 720895, 0, 0, 655417, 0, 0, 786431, 0, 0, 720953, 0, 0, 851967, 0, 0, 786489, 0, 0, 917503, 0, 0, 852025, 0, 0, 983039, 0, 0, 917561, 0, 0, 1048575, 0, 0, 983097, 0, 0, 1114111, 0, 0, 1048633, 0, 0, 1179647, 0, 0, 1114169, 0, 0, 1245183, 0, 0, 1179705, 0, 0, 1310719, 0, 0, 1245241, 0, 0, 1376255, 0, 0, 1310777, 0, 0, 1441791, 0, 0, 1376313, 0, 0, 1507327, 0, 0, 1441849, 0, 0, 1572863, 0, 0, 1507385, 0, 0, 1638399, 0, 0, 1572864, 0, 0, 1572865, 0, 0, 1572866, 0, 0, 1572867, 0, 0, 1572868, 0, 0, 1572869, 0, 0, 1572870, 0, 0, 1572871, 0, 0, 1572872, 0, 0, 1572873, 0, 0, 1572874, 0, 0, 1572875, 0, 0, 1572876, 0, 0, 1572877, 0, 0, 1572878, 0, 0, 1572879, 0, 0, 1572880, 0, 0, 1572881, 0, 0, 1572882, 0, 0, 1572883, 0, 0, 1572884, 0, 0, 1572885, 0, 0, 1572886, 0, 0, 1572887, 0, 0, 1572888, 0, 0, 1572889, 0, 0, 1572890, 0, 0, 1572891, 0, 0, 1572892, 0, 0, 1572893, 0, 0, 1572894, 0, 0, 1572895, 0, 0, 1572896, 0, 0, 1572897, 0, 0, 1572898, 0, 0, 1572899, 0, 0, 1572900, 0, 0, 1572901, 0, 0, 1572902, 0, 0, 1572903, 0, 0, 1572904, 0, 0, 1572905, 0, 0, 1572906, 0, 0, 1572907, 0, 0, 1572908, 0, 0, 1572909, 0, 0, 1572910, 0, 0, 1572911, 0, 0, 1572912, 0, 0, 1572913, 0, 0, 1572914, 0, 0, 1572915, 0, 0, 1572916, 0, 0, 1572917, 0, 0, 1572918, 0, 0, 1572919, 0, 0, 1572920, 0, 0, 1572921, 0, 0 )

[node name="Background" parent="." index="3" instance=ExtResource( 2 )]
editor/display_folded = true
script = ExtResource( 3 )

[node name="WallProps" parent="Background" index="0"]
editor/display_folded = false

[node name="Props1" parent="Background/WallProps" index="0"]
tile_data = PoolIntArray( 5, 9, 0, 12, 11, 0, 20, 9, 0, 24, 10, 0, 25, 11, 0, 33, 9, 0, 196640, 1, 0 )

[node name="Pillars1" parent="Background/Pillars" index="0"]
tile_data = PoolIntArray( 10, 0, 0, 28, 0, 0, 65546, 0, 0, 65564, 0, 0, 131082, 0, 0, 131100, 0, 0, 196618, 0, 0, 196636, 0, 0, 262154, 0, 0, 262172, 0, 0, 262179, 5, 0, 262186, 4, 0, 327690, 0, 0, 327708, 0, 0, 327715, 7, 0, 327722, 6, 0, 393226, 0, 0, 393244, 0, 0, 393251, 7, 0, 393258, 6, 0, 458762, 0, 0, 458766, 5, 0, 458772, 4, 0, 458780, 0, 0, 458787, 7, 0, 458794, 6, 0, 524298, 0, 0, 524302, 7, 0, 524308, 6, 0, 524313, 5, 0, 524316, 0, 0, 524318, 4, 0, 524323, 7, 0, 524330, 6, 0, 589834, 0, 0, 589838, 7, 0, 589844, 6, 0, 589849, 7, 0, 589852, 0, 0, 589854, 6, 0, 589859, 7, 0, 589866, 6, 0, 655361, 5, 0, 655366, 4, 0, 655370, 0, 0, 655374, 7, 0, 655380, 6, 0, 655385, 7, 0, 655388, 0, 0, 655390, 6, 0, 655395, 7, 0, 655402, 6, 0, 720897, 7, 0, 720902, 6, 0, 720906, 0, 0, 720910, 7, 0, 720916, 6, 0, 720921, 7, 0, 720924, 0, 0, 720926, 6, 0, 720931, 7, 0, 720938, 6, 0, 786433, 7, 0, 786438, 6, 0, 786442, 0, 0, 786446, 7, 0, 786452, 6, 0, 786457, 7, 0, 786460, 0, 0, 786462, 6, 0, 786467, 7, 0, 786474, 6, 0, 851969, 7, 0, 851974, 6, 0, 851978, 0, 0, 851982, 7, 0, 851988, 6, 0, 851993, 7, 0, 851996, 0, 0, 851998, 6, 0, 852003, 7, 0, 852010, 6, 0, 917505, 7, 0, 917508, 5, 0, 917510, 6, 0, 917512, 4, 0, 917514, 0, 0, 917518, 7, 0, 917524, 6, 0, 917529, 7, 0, 917532, 0, 0, 917534, 6, 0, 917539, 7, 0, 917546, 6, 0, 983041, 7, 0, 983044, 7, 0, 983046, 6, 0, 983048, 6, 0, 983050, 0, 0, 983054, 7, 0, 983060, 6, 0, 983065, 7, 0, 983068, 0, 0, 983070, 6, 0, 983075, 7, 0, 983082, 6, 0, 1048577, 7, 0, 1048580, 7, 0, 1048582, 6, 0, 1048584, 6, 0, 1048586, 0, 0, 1048590, 7, 0, 1048596, 6, 0, 1048601, 7, 0, 1048604, 0, 0, 1048606, 6, 0, 1048611, 7, 0, 1048618, 6, 0, 1114113, 7, 0, 1114116, 7, 0, 1114118, 6, 0, 1114120, 6, 0, 1114122, 0, 0, 1114126, 7, 0, 1114132, 6, 0, 1114137, 7, 0, 1114140, 0, 0, 1114142, 6, 0, 1114147, 7, 0, 1114154, 6, 0, 1179649, 7, 0, 1179652, 7, 0, 1179654, 6, 0, 1179656, 6, 0, 1179658, 0, 0, 1179662, 7, 0, 1179668, 6, 0, 1179673, 7, 0, 1179676, 0, 0, 1179678, 6, 0, 1179683, 7, 0, 1179690, 6, 0, 1245185, 7, 0, 1245188, 7, 0, 1245190, 6, 0, 1245192, 6, 0, 1245194, 0, 0, 1245198, 7, 0, 1245204, 6, 0, 1245209, 7, 0, 1245212, 0, 0, 1245214, 6, 0, 1245219, 7, 0, 1245226, 6, 0, 1310721, 7, 0, 1310724, 7, 0, 1310726, 6, 0, 1310728, 6, 0, 1310730, 0, 0, 1310734, 7, 0, 1310740, 6, 0, 1310745, 7, 0, 1310748, 0, 0, 1310750, 6, 0, 1310755, 7, 0, 1310762, 6, 0, 1376257, 7, 0, 1376260, 7, 0, 1376262, 6, 0, 1376264, 6, 0, 1376266, 0, 0, 1376270, 7, 0, 1376276, 6, 0, 1376281, 7, 0, 1376284, 0, 0, 1376286, 6, 0, 1376291, 7, 0, 1376298, 6, 0, 1441793, 7, 0, 1441796, 7, 0, 1441798, 6, 0, 1441800, 6, 0, 1441802, 0, 0, 1441806, 7, 0, 1441812, 6, 0, 1441817, 7, 0, 1441820, 0, 0, 1441822, 6, 0, 1441827, 7, 0, 1441834, 6, 0, 1507329, 7, 0, 1507332, 7, 0, 1507334, 6, 0, 1507336, 6, 0, 1507338, 0, 0, 1507342, 7, 0, 1507348, 6, 0, 1507353, 7, 0, 1507356, 0, 0, 1507358, 6, 0, 1507363, 7, 0, 1507370, 6, 0 )

[node name="Pillars2" parent="Background/Pillars" index="1"]
tile_data = PoolIntArray( 262179, 8, 0, 262180, 10, 0, 262181, 9, 0, 262182, 9, 0, 262183, 10, 0, 262184, 10, 0, 262185, 9, 0, 262186, 11, 0, 458766, 8, 0, 458767, 10, 0, 458768, 10, 0, 458769, 10, 0, 458770, 9, 0, 458771, 9, 0, 458772, 11, 0, 524313, 8, 0, 524314, 10, 0, 524315, 9, 0, 524316, 10, 0, 524317, 10, 0, 524318, 11, 0, 655361, 8, 0, 655362, 9, 0, 655363, 9, 0, 655364, 9, 0, 655365, 10, 0, 655366, 11, 0, 917508, 8, 0, 917509, 9, 0, 917510, 9, 0, 917511, 9, 0, 917512, 11, 0 )

[node name="Pillars3" parent="Background/Pillars" index="2"]
tile_data = PoolIntArray( 18, 0, 0, 65554, 0, 0, 131090, 0, 0, 196626, 0, 0, 262162, 0, 0, 327698, 0, 0, 393234, 0, 0, 458770, 0, 0, 524306, 0, 0, 589842, 0, 0, 655378, 0, 0, 720914, 0, 0, 786450, 0, 0, 851986, 0, 0, 917522, 0, 0, 983058, 0, 0, 1048594, 0, 0, 1114130, 0, 0, 1179666, 0, 0, 1245202, 0, 0, 1310738, 0, 0, 1376274, 0, 0 )

[node name="Props1" parent="Background/GroundProps" index="0"]
tile_data = PoolIntArray( 327695, 17, 0, 393231, 16, 0, 393232, 16, 0, 393235, 1, 0, 393245, 16, 0, 458778, 10, 0, 458779, 16, 0, 458780, 17, 0, 458781, 17, 0, 589826, 11, 0, 589828, 17, 0, 589829, 17, 0, 851973, 10, 0, 851975, 12, 0, 851976, 15, 0 )

[node name="Props3" parent="Background/GroundProps" index="2"]
tile_data = PoolIntArray( 131111, 10, 0, 196644, 11, 0, 196645, 17, 0, 196647, 16, 0, 196648, 16, 0, 196649, 11, 0 )

[node name="Background2" parent="." index="4" instance=ExtResource( 2 )]
editor/display_folded = true

[node name="Tubes" parent="Background2" index="2"]
editor/display_folded = false

[node name="Tube1" parent="Background2/Tubes" index="0"]
tile_data = PoolIntArray( 851964, 0, 262144, 851965, 0, 196608, 851966, 0, 196608, 851967, 0, 196608, 786432, 0, 196608, 786433, 0, 196608, 786434, 0, 196608, 786435, 0, 196608, 786436, 0, 196608, 786437, 0, 196608, 786438, 0, 393218, 851974, 0, 327680, 917510, 0, 327680, 917522, 0, 393216, 917523, 0, 196608, 917524, 0, 196608, 917525, 0, 196608, 917526, 0, 196608, 917527, 0, 196608, 917528, 0, 393218, 983046, 0, 524288, 983047, 0, 196608, 983048, 0, 196608, 983049, 0, 196608, 983050, 0, 196608, 983051, 0, 196608, 983052, 0, 196608, 983053, 0, 196608, 983054, 0, 196608, 983055, 0, 196608, 983056, 0, 196608, 983057, 0, 196608, 983058, 0, 524290, 983064, 0, 327680, 983077, 0, 393216, 983078, 0, 196608, 983079, 0, 196608, 983080, 0, 196608, 983081, 0, 196608, 983082, 0, 196608, 983083, 0, 393218, 1048600, 0, 327680, 1048613, 0, 327680, 1048619, 0, 327680, 1114136, 0, 327680, 1114146, 0, 196609, 1114147, 0, 262144, 1114148, 0, 262144, 1114149, 0, 131074, 1114155, 0, 524288, 1114156, 0, 196608, 1114157, 0, 196608, 1114158, 0, 196608, 1114159, 0, 196608, 1114160, 0, 262146, 1179672, 0, 524288, 1179673, 0, 196608, 1179674, 0, 196608, 1179675, 0, 196608, 1179676, 0, 196608, 1179677, 0, 196608, 1179678, 0, 196608, 1179679, 0, 196608, 1179680, 0, 196608, 1179681, 0, 196608, 1179682, 0, 393217, 1179683, 0, 196608, 1179684, 0, 196608, 1179685, 0, 196608, 1179686, 0, 196608, 1179687, 0, 393218, 1245223, 0, 327680, 1310759, 0, 327680, 1376295, 0, 327680, 1441831, 0, 524288, 1441832, 0, 196608, 1441833, 0, 196608, 1441834, 0, 196608, 1441835, 0, 262146 )

[node name="Tube2" parent="Background2/Tubes" index="2"]
tile_data = PoolIntArray( 11, 0, 196609, 65547, 0, 327680, 131083, 0, 327680, 196619, 0, 327680, 262155, 0, 327680, 327691, 0, 327680, 393227, 0, 327680, 458763, 0, 327680, 524297, 0, 393216, 524298, 0, 196608, 524299, 0, 524290, 589833, 0, 327680, 655369, 0, 327680, 720905, 0, 327680, 786441, 0, 327680, 851977, 0, 327680, 917513, 0, 327680, 917544, 0, 393216, 917545, 0, 196608, 917546, 0, 196608, 917547, 0, 196608, 917548, 0, 196608, 917549, 0, 196608, 917550, 0, 196608, 917551, 0, 196608, 917552, 0, 262146, 983049, 0, 327680, 983080, 0, 327680, 1048585, 0, 327680, 1048597, 0, 262144, 1048598, 0, 196608, 1048599, 0, 196608, 1048600, 0, 196608, 1048601, 0, 196608, 1048602, 0, 262146, 1048605, 0, 393216, 1048606, 0, 196608, 1048607, 0, 196608, 1048608, 0, 196608, 1048609, 0, 196608, 1048610, 0, 196608, 1048611, 0, 196608, 1048612, 0, 196608, 1048613, 0, 196608, 1048614, 0, 196608, 1048615, 0, 196608, 1048616, 0, 524290, 1114121, 0, 327680, 1114141, 0, 327680, 1179657, 0, 327680, 1179677, 0, 327680, 1245193, 0, 524288, 1245194, 0, 196608, 1245195, 0, 196608, 1245196, 0, 196608, 1245197, 0, 196608, 1245198, 0, 196608, 1245199, 0, 196608, 1245200, 0, 196608, 1245201, 0, 196608, 1245202, 0, 196608, 1245203, 0, 196608, 1245204, 0, 196608, 1245205, 0, 196608, 1245206, 0, 196608, 1245207, 0, 196608, 1245208, 0, 196608, 1245209, 0, 196608, 1245210, 0, 196608, 1245211, 0, 196608, 1245212, 0, 196608, 1245213, 0, 524290 )

[node name="Tube3" parent="Background2/Tubes" index="4"]
tile_data = PoolIntArray( 1048587, 0, 393216, 1048588, 0, 262146, 1048594, 0, 262144, 1048595, 0, 196608, 1048596, 0, 262146, 1048602, 0, 262144, 1048603, 0, 393218, 1114117, 0, 262144, 1114118, 0, 196608, 1114119, 0, 196608, 1114120, 0, 196608, 1114121, 0, 196608, 1114122, 0, 196608, 1114123, 0, 524290, 1114139, 0, 524288, 1114140, 0, 196608, 1114141, 0, 196608, 1114142, 0, 196608, 1114143, 0, 196608, 1114144, 0, 196608, 1114145, 0, 262146 )

[node name="Props3" parent="Background2/Tubes" index="5"]
tile_data = PoolIntArray( 458763, 8, 0, 589833, 9, 0, 786437, 5, 0, 851974, 9, 0, 917510, 8, 0, 917523, 6, 0, 917527, 5, 0, 917545, 6, 0, 983047, 6, 0, 983064, 9, 0, 983078, 6, 0, 983082, 5, 0, 1048588, 6, 0, 1048602, 5, 0, 1048615, 5, 0, 1114122, 5, 0, 1114136, 8, 0, 1114141, 9, 0, 1114148, 5, 0, 1114156, 6, 0, 1179657, 8, 0, 1179673, 6, 0, 1179677, 8, 0, 1179686, 5, 0, 1245194, 6, 0, 1245223, 9, 0, 1376295, 8, 0, 1441832, 6, 0 )

[node name="GroundProps" parent="Background2" index="6"]
editor/display_folded = false

[node name="Props1" parent="Background2/GroundProps" index="0"]
tile_data = PoolIntArray( 458803, 0, 0, 458804, 7, 0, 655376, 10, 0, 655389, 11, 0, 983041, 4, 0, 983042, 5, 0, 1376280, 12, 0, 1376281, 13, 0, 1376282, 14, 0, 1376283, 15, 0 )

[node name="Props3" parent="Background2/GroundProps" index="2"]
tile_data = PoolIntArray( 458807, 22, 0 )

[node name="Blocks" parent="." index="5" instance=ExtResource( 4 )]
editor/display_folded = true

[node name="Blocks1" parent="Blocks" index="0"]
tile_data = PoolIntArray( 196611, 4, 0, 196612, 4, 1, 196613, 4, 1, 196614, 4, 1, 196615, 4, 1, 196616, 4, 2, 327676, 0, 0, 262147, 4, 131072, 262148, 4, 131073, 262149, 4, 131073, 262150, 4, 131073, 262151, 4, 131073, 262152, 4, 131074, 327685, 22, 0, 393221, 22, 0, 524284, 6, 0, 524285, 6, 1, 524286, 6, 1, 524287, 6, 2, 589820, 1, 0, 589821, 1, 0, 589822, 1, 0, 589823, 1, 0, 524288, 2, 0, 524289, 2, 0, 524290, 1, 0, 524291, 3, 0, 655373, 6, 0, 655374, 6, 1, 655375, 6, 2, 655408, 4, 0, 655409, 4, 2, 720924, 4, 0, 720925, 4, 1, 720926, 4, 1, 720927, 4, 1, 720928, 4, 1, 720929, 4, 1, 720930, 4, 2, 720944, 4, 65536, 720945, 4, 65538, 786445, 18, 0, 786446, 536870930, 0, 786460, 4, 65536, 786461, 4, 65537, 786462, 4, 65537, 786463, 4, 65537, 786464, 4, 65537, 786465, 4, 65537, 786466, 4, 65538, 786480, 4, 65536, 786481, 4, 65538, 851981, 19, 0, 851982, 536870931, 0, 851996, 4, 131072, 851997, 4, 131073, 851998, 4, 131073, 851999, 4, 131073, 852000, 4, 131073, 852001, 4, 131073, 852002, 4, 131074, 852016, 4, 65536, 852017, 4, 65538, 852018, 23, 0, 852019, 16, 0, 852020, 23, 0, 852021, 4, 0, 852022, 4, 2, 917517, 4, 0, 917518, 4, 2, 917532, 22, 0, 917534, 22, 0, 917536, 22, 0, 917538, 22, 0, 917552, 4, 65536, 917553, 4, 65538, 917554, 23, 65536, 917556, 23, 65536, 917557, 4, 65536, 917558, 4, 65538, 983053, 4, 65536, 983054, 4, 65538, 983068, 22, 0, 983070, 22, 0, 983072, 22, 0, 983074, 22, 0, 983088, 4, 65536, 983089, 4, 65538, 983090, 23, 65536, 983091, 17, 0, 983092, 23, 131072, 983093, 4, 131072, 983094, 4, 131074, 1048576, 4, 0, 1048577, 4, 1, 1048578, 4, 1, 1048579, 4, 1, 1048580, 4, 2, 1048589, 4, 65536, 1048590, 4, 65538, 1048604, 22, 0, 1048606, 22, 0, 1048608, 22, 0, 1048610, 22, 0, 1048624, 4, 65536, 1048625, 4, 65538, 1048626, 23, 65536, 1114112, 4, 65536, 1114113, 4, 65537, 1114114, 4, 65537, 1114115, 4, 65537, 1114116, 4, 65538, 1114125, 4, 65536, 1114126, 4, 65538, 1114140, 22, 0, 1114142, 22, 0, 1114144, 22, 0, 1114146, 22, 0, 1114160, 4, 65536, 1114161, 4, 65538, 1114162, 23, 65536, 1179648, 4, 131072, 1179649, 4, 131073, 1179650, 4, 131073, 1179651, 4, 131073, 1179652, 4, 131074, 1179661, 4, 65536, 1179662, 4, 65538, 1179666, 4, 0, 1179667, 4, 2, 1179676, 22, 0, 1179678, 22, 0, 1179680, 22, 0, 1179682, 22, 0, 1179694, 24, 0, 1179695, 4, 0, 1179696, 4, 0, 1179697, 4, 131074, 1179698, 23, 131072, 1245184, 23, 0, 1245186, 23, 0, 1245197, 4, 131072, 1245198, 4, 131074, 1245202, 4, 65536, 1245203, 4, 65538, 1245212, 22, 0, 1245214, 22, 0, 1245216, 22, 0, 1245218, 22, 0, 1245230, 26, 0, 1245231, 37, 0, 1245232, 37, 0, 1245233, 37, 0, 1245234, 27, 0, 1245236, 9, 0, 1245238, 13, 0, 1310720, 23, 65536, 1310722, 23, 65536, 1310733, 44, 0, 1310738, 4, 65536, 1310739, 4, 65538, 1310748, 22, 0, 1310750, 22, 0, 1310752, 22, 0, 1310754, 22, 0, 1310764, 24, 0, 1310765, 40, 0, 1310766, 26, 0, 1310767, 37, 0, 1310768, 37, 0, 1310769, 37, 0, 1310770, 27, 0, 1310771, 9, 0, 1310774, 13, 0, 1376256, 23, 65536, 1376258, 23, 131072, 1376274, 4, 131072, 1376275, 4, 131074, 1376284, 22, 0, 1376286, 22, 0, 1376288, 22, 0, 1376290, 22, 0, 1376300, 26, 0, 1376301, 37, 0, 1376302, 26, 0, 1376303, 37, 0, 1376304, 37, 0, 1376305, 37, 0, 1376306, 27, 0, 1441792, 23, 65536, 1441814, 39, 0, 1441815, 41, 0, 1441816, 40, 0, 1441817, 43, 0, 1441818, 38, 0, 1441819, 43, 0, 1441820, 42, 0, 1441821, 536870953, 0, 1441822, 536870954, 0, 1441823, 536870950, 0, 1441824, 39, 0, 1441825, 41, 0, 1441826, 25, 0, 1441836, 26, 0, 1441837, 37, 0, 1441838, 26, 0, 1441839, 37, 0, 1441840, 37, 0, 1441841, 37, 0, 1441842, 27, 0, 1507328, 23, 131072, 1507349, 37, 0, 1507350, 37, 0, 1507351, 37, 0, 1507352, 37, 0, 1507353, 37, 0, 1507354, 37, 0, 1507355, 37, 0, 1507356, 37, 0, 1507357, 37, 0, 1507358, 37, 0, 1507359, 37, 0, 1507360, 37, 0, 1507361, 37, 0, 1507362, 27, 0, 1507372, 26, 0, 1507373, 37, 0, 1507374, 26, 0, 1507375, 37, 0, 1507376, 37, 0, 1507377, 37, 0, 1507378, 27, 0, 1507379, 37, 0, 1507380, 37, 0 )

[node name="Blocks2" parent="Blocks" index="1"]
tile_data = PoolIntArray( 327677, 1, 0, 327678, 2, 0, 327679, 1, 0, 262144, 1, 0, 262145, 2, 0, 262146, 3, 0, 393212, 44, 0, 327680, 536870956, 0, 458752, 13, 0, 458753, 13, 0, 458754, 13, 0, 458755, 11, 0, 458756, 11, 0, 458757, 15, 0, 524338, 4, 0, 524339, 4, 1, 524340, 4, 1, 524341, 4, 1, 524342, 4, 2, 655357, 22, 0, 655359, 22, 0, 589874, 4, 65536, 589875, 4, 65537, 589876, 4, 65537, 589877, 4, 65537, 589878, 4, 65538, 720893, 22, 0, 720895, 22, 0, 655410, 4, 65536, 655411, 4, 65537, 655412, 4, 65537, 655413, 4, 65537, 655414, 4, 65538, 786429, 22, 0, 786431, 22, 0, 720946, 4, 65536, 720947, 4, 65537, 720948, 4, 65537, 720949, 4, 65537, 720950, 4, 65538, 851965, 22, 0, 851967, 22, 0, 786447, 4, 0, 786448, 4, 1, 786449, 4, 2, 786482, 4, 131072, 786483, 4, 131073, 786484, 4, 131073, 786485, 4, 131073, 786486, 4, 131074, 917501, 22, 0, 917503, 22, 0, 851983, 4, 65536, 851984, 4, 65537, 851985, 4, 65538, 852019, 23, 0, 852020, 23, 0, 983037, 22, 0, 983039, 22, 0, 917519, 4, 65536, 917520, 4, 65537, 917521, 4, 65538, 917555, 23, 65536, 1048573, 22, 0, 1048575, 22, 0, 983055, 4, 65536, 983056, 4, 65537, 983057, 4, 65538, 983091, 23, 65536, 1114109, 4, 0, 1114110, 4, 1, 1114111, 4, 2, 1048591, 4, 131072, 1048592, 4, 131073, 1048593, 4, 131074, 1048627, 23, 65536, 1048628, 4, 0, 1048629, 4, 1, 1048630, 4, 2, 1179645, 4, 131072, 1179646, 4, 131073, 1179647, 4, 131074, 1114163, 23, 65536, 1114164, 4, 65536, 1114165, 4, 65537, 1114166, 4, 65538, 1245181, 23, 0, 1179694, 24, 0, 1179695, 41, 0, 1179696, 40, 0, 1179697, 42, 0, 1179698, 25, 0, 1179699, 23, 131072, 1179700, 4, 131072, 1179701, 4, 131073, 1179702, 4, 131074, 1310717, 23, 65536, 1245184, 16, 0, 1245185, 23, 0, 1245186, 16, 0, 1245187, 4, 0, 1245188, 4, 2, 1245235, 9, 0, 1245236, 11, 0, 1245237, 11, 0, 1376253, 23, 131072, 1310721, 23, 65536, 1310723, 4, 65536, 1310724, 4, 65538, 1310772, 11, 0, 1310773, 11, 0, 1441789, 4, 0, 1441790, 4, 1, 1441791, 4, 2, 1376257, 23, 65536, 1376259, 4, 131072, 1376260, 4, 131074, 1376307, 23, 0, 1507325, 4, 65536, 1507326, 4, 65537, 1507327, 4, 65538, 1441793, 23, 65536, 1441794, 24, 0, 1441795, 40, 0, 1441796, 43, 0, 1441797, 39, 0, 1441798, 41, 0, 1441799, 536870954, 0, 1441800, 536870950, 0, 1441801, 39, 0, 1441802, 43, 0, 1441803, 38, 0, 1441804, 43, 0, 1441805, 39, 0, 1441806, 40, 0, 1441807, 42, 0, 1441808, 536870953, 0, 1441809, 536870951, 0, 1441810, 43, 0, 1441811, 38, 0, 1441812, 40, 0, 1441813, 43, 0, 1572861, 4, 131072, 1572862, 4, 131073, 1572863, 4, 131074, 1507329, 23, 131072, 1507330, 26, 0, 1507331, 37, 0, 1507332, 37, 0, 1507333, 37, 0, 1507334, 37, 0, 1507335, 37, 0, 1507336, 37, 0, 1507337, 37, 0, 1507338, 37, 0, 1507339, 37, 0, 1507340, 37, 0, 1507341, 37, 0, 1507342, 37, 0, 1507343, 37, 0, 1507344, 37, 0, 1507345, 37, 0, 1507346, 37, 0, 1507347, 37, 0, 1507348, 37, 0, 1507349, 37, 0 )

[node name="Blocks3" parent="Blocks" index="2"]
tile_data = PoolIntArray( 65532, 37, 0, 65533, 37, 0, 65534, 37, 0, 65535, 37, 0, 0, 37, 0, 1, 37, 0, 2, 27, 0, 131068, 37, 0, 131069, 37, 0, 131070, 37, 0, 131071, 37, 0, 65536, 37, 0, 65537, 37, 0, 65538, 27, 0, 196604, 37, 0, 196605, 37, 0, 196606, 37, 0, 196607, 37, 0, 131072, 37, 0, 131073, 37, 0, 131074, 27, 0, 262140, 37, 0, 262141, 37, 0, 262142, 37, 0, 262143, 37, 0, 196608, 37, 0, 196609, 37, 0, 196610, 27, 0, 524343, 4, 0, 524344, 4, 1, 524345, 4, 1, 524346, 4, 1, 524347, 4, 1, 524348, 4, 2, 589879, 4, 65536, 589880, 4, 65537, 589881, 4, 65537, 589882, 4, 65537, 589883, 4, 65537, 589884, 4, 65538, 655415, 4, 65536, 655416, 4, 65537, 655417, 4, 65537, 655418, 4, 65537, 655419, 4, 65537, 655420, 4, 65538, 720909, 0, 0, 720910, 1, 0, 720911, 2, 0, 720912, 1, 0, 720913, 3, 0, 720951, 4, 65536, 720952, 4, 65537, 720953, 4, 65537, 720954, 4, 65537, 720955, 4, 65537, 720956, 4, 65538, 786487, 4, 65536, 786488, 4, 65537, 786489, 4, 65537, 786490, 4, 65537, 786491, 4, 65537, 786492, 4, 65538, 852019, 16, 0, 852020, 16, 0, 852023, 4, 131072, 852024, 4, 131073, 852025, 4, 131073, 852026, 4, 131073, 852027, 4, 131073, 852028, 4, 131074, 917559, 24, 0, 917560, 40, 0, 917561, 43, 0, 917562, 42, 0, 917563, 41, 0, 917564, 40, 0, 983091, 17, 0, 983092, 17, 0, 983095, 26, 0, 983096, 37, 0, 983097, 37, 0, 983098, 37, 0, 983099, 37, 0, 983100, 37, 0, 1048631, 26, 0, 1048632, 37, 0, 1048633, 37, 0, 1048634, 37, 0, 1048635, 37, 0, 1048636, 37, 0, 1114127, 4, 0, 1114128, 4, 1, 1114129, 4, 2, 1114167, 26, 0, 1114168, 37, 0, 1114169, 37, 0, 1114170, 37, 0, 1114171, 37, 0, 1114172, 37, 0, 1245181, 16, 0, 1245182, 4, 0, 1245183, 4, 2, 1179663, 4, 65536, 1179664, 4, 65537, 1179665, 4, 65538, 1179698, 25, 0, 1179703, 26, 0, 1179704, 37, 0, 1179705, 37, 0, 1179706, 37, 0, 1179707, 37, 0, 1179708, 37, 0, 1310718, 4, 65536, 1310719, 4, 65538, 1245184, 16, 0, 1245185, 16, 0, 1245186, 16, 0, 1245199, 4, 131072, 1245200, 4, 131073, 1245201, 4, 131074, 1245234, 27, 0, 1245239, 26, 0, 1245240, 37, 0, 1245241, 37, 0, 1245242, 37, 0, 1245243, 37, 0, 1245244, 37, 0, 1376254, 4, 131072, 1376255, 4, 131074, 1310770, 27, 0, 1310775, 26, 0, 1310776, 37, 0, 1310777, 37, 0, 1310778, 37, 0, 1310779, 37, 0, 1310780, 37, 0, 1376306, 27, 0, 1376307, 40, 0, 1376308, 43, 0, 1376309, 39, 0, 1376310, 41, 0, 1376311, 40, 0, 1376312, 43, 0, 1376313, 38, 0, 1376314, 43, 0, 1376315, 42, 0, 1376316, 41, 0, 1441842, 27, 0, 1441843, 37, 0, 1441844, 37, 0, 1441845, 37, 0, 1441846, 37, 0, 1441847, 37, 0, 1441848, 37, 0, 1441849, 37, 0, 1441850, 37, 0, 1441851, 37, 0, 1441852, 37, 0, 1507378, 27, 0, 1507381, 37, 0, 1507382, 37, 0, 1507383, 37, 0, 1507384, 37, 0, 1507385, 37, 0, 1507386, 37, 0, 1507387, 37, 0, 1507388, 37, 0 )

[node name="BlockProps" parent="Blocks" index="3"]
tile_data = PoolIntArray( 196611, 6, 0, 196612, 7, 0, 196613, 7, 0, 196614, 7, 0, 196615, 7, 0, 196616, 8, 0, 327682, 0, 0, 524284, 6, 0, 524285, 7, 0, 524286, 7, 0, 524287, 7, 0, 458752, 7, 0, 458753, 7, 0, 458754, 7, 0, 458755, 7, 0, 458756, 7, 0, 458757, 8, 0, 524338, 6, 0, 524339, 7, 0, 524340, 7, 0, 524341, 7, 0, 524342, 7, 0, 524343, 7, 0, 524344, 7, 0, 524345, 7, 0, 524346, 7, 0, 524347, 7, 0, 524348, 8, 0, 655356, 1, 0, 655358, 3, 0, 589824, 2, 0, 589825, 1, 0, 589826, 0, 0, 589827, 3, 0, 655373, 6, 0, 655374, 7, 0, 655375, 8, 0, 655408, 6, 0, 655409, 8, 0, 720909, 6, 0, 720910, 7, 0, 720911, 7, 0, 720912, 7, 0, 720913, 8, 0, 720924, 6, 0, 720925, 7, 0, 720926, 7, 0, 720927, 7, 0, 720928, 7, 0, 720929, 7, 0, 720930, 8, 0, 1114109, 6, 0, 1114110, 7, 0, 1114111, 7, 0, 1048576, 7, 0, 1048577, 7, 0, 1048578, 7, 0, 1048579, 7, 0, 1048580, 8, 0, 1179666, 6, 0, 1179667, 8, 0 )

[node name="Tubes1" parent="Blocks" index="4"]
tile_data = PoolIntArray( 786481, 0, 393216, 786482, 0, 196608, 786483, 0, 196608, 786484, 0, 393218, 852017, 0, 327680, 852020, 0, 327680, 917553, 0, 327680, 917556, 0, 327680, 983089, 0, 327680, 983092, 0, 327680, 1048625, 0, 327680, 1048628, 0, 327680, 1114161, 0, 327681, 1114164, 0, 327680, 1179700, 0, 327680, 1245236, 0, 327680, 1310762, 0, 393216, 1310763, 0, 262146, 1310772, 0, 327681, 1376298, 0, 327680, 1441834, 0, 327680, 1507370, 0, 327681 )

[node name="Tubes2" parent="Blocks" index="6"]
tile_data = PoolIntArray( 1245235, 0, 262144, 1245236, 0, 196608, 1245237, 0, 196608, 1245238, 0, 262146, 1376296, 0, 393216, 1376297, 0, 196608, 1376298, 0, 196608, 1376299, 0, 196608, 1376300, 0, 196608, 1376301, 0, 262146, 1441832, 0, 327680, 1507368, 0, 327681 )

[node name="Tubes3" parent="Blocks" index="8"]
tile_data = PoolIntArray( 1048626, 0, 393216, 1048627, 0, 196608, 1048628, 0, 196608, 1048629, 0, 393218, 1114162, 0, 327681, 1114165, 0, 327680, 1179701, 0, 327680, 1245237, 0, 327680, 1310773, 0, 327681 )

[node name="TubeProps3" parent="Blocks" index="9"]
tile_data = PoolIntArray( 786482, 7, 0, 786483, 5, 0, 852017, 8, 0, 852020, 8, 0, 1048627, 7, 0, 1048628, 5, 0, 1114161, 6, 0, 1114162, 10, 0, 1114165, 8, 0, 1245235, 7, 0, 1245238, 5, 0, 1310763, 9, 0, 1310772, 6, 0, 1310773, 6, 0, 1376297, 7, 0, 1376298, 8, 0, 1376301, 5, 0, 1441832, 8, 0 )

[node name="Platforms" parent="." index="6" instance=ExtResource( 5 )]
editor/display_folded = true

[node name="Platforms" parent="Platforms" index="1"]
tile_data = PoolIntArray( 393219, 16, 0, 393220, 16, 0, 1179658, 6, 0, 1179659, 7, 0, 1179660, 11, 0, 1310726, 16, 0, 1310736, 16, 0, 1310737, 16, 0, 1310740, 17, 0, 1376261, 17, 0, 1376262, 17, 0, 1376272, 16, 0, 1376273, 16, 0, 1376276, 16, 0, 1376277, 16, 0, 1376278, 16, 0 )

[node name="Spikes" parent="." index="7" instance=ExtResource( 6 )]
tile_data = PoolIntArray( 852023, 0, 0, 852024, 0, 0, 852025, 0, 0, 852026, 0, 0, 852027, 0, 0, 852028, 0, 0, 1114158, 0, 0, 1114159, 0, 0, 1114160, 0, 0, 1114161, 0, 0, 1114162, 0, 0, 1245228, 0, 0, 1245229, 0, 0, 1310771, 0, 0, 1310772, 0, 0, 1310773, 0, 0, 1310774, 0, 0, 1310775, 0, 0, 1310776, 0, 0, 1310777, 0, 0, 1310778, 0, 0, 1310779, 0, 0, 1310780, 0, 0, 1507363, 0, 0, 1507364, 0, 0, 1507365, 0, 0, 1507366, 0, 0, 1507367, 0, 0, 1507368, 0, 0, 1507369, 0, 0, 1507370, 0, 0, 1507371, 0, 0, 1507372, 0, 0, 1507373, 0, 0, 1507374, 0, 0, 1507375, 0, 0, 1507376, 0, 0, 1507377, 0, 0, 1507378, 0, 0, 1507379, 0, 0, 1507380, 0, 0, 1507381, 0, 0, 1507382, 0, 0, 1507383, 0, 0, 1507384, 0, 0, 1507385, 0, 0, 1507386, 0, 0, 1507387, 0, 0, 1507388, 0, 0 )

[node name="Player" parent="." index="8" instance=ExtResource( 7 )]
position = Vector2( 58.6513, 248 )

[node name="FuelTank" parent="." index="9" instance=ExtResource( 8 )]
position = Vector2( 176, 280 )

[node name="FuelTank2" parent="." index="10" instance=ExtResource( 8 )]
position = Vector2( 312, 280 )

[node name="HoldMessage" parent="." index="11" instance=ExtResource( 9 )]
editor/display_folded = true
visible = false
position = Vector2( 400, 336 )

[node name="FuelTank3" parent="." index="12" instance=ExtResource( 8 )]
position = Vector2( 528, 168 )

[node name="CameraLimiter" parent="." index="13" instance=ExtResource( 10 )]
editor/display_folded = true
visible = false
position = Vector2( 640, 144 )
limit = 432

[node name="CollisionPolygon2D" parent="CameraLimiter/Exit" index="0"]
polygon = PoolVector2Array( 232, 240, -192, 240, -192, -144, 232, -144 )

[node name="CollisionPolygon2D" parent="CameraLimiter" index="1"]
polygon = PoolVector2Array( -168, -144, 184, -144, 184, 240, -168, 240 )

[node name="FinishLine" parent="." index="14" instance=ExtResource( 11 )]
editor/display_folded = true
visible = false
position = Vector2( 912, 96 )
next_stage = ExtResource( 12 )

[node name="CollisionPolygon2D" type="CollisionPolygon2D" parent="FinishLine" index="0"]
polygon = PoolVector2Array( -16, 32, 24, 32, 24, 16, -16, 16 )

[node name="Message" parent="." index="15" instance=ExtResource( 13 )]
editor/display_folded = true
visible = false
position = Vector2( 96, 32 )
message = "great jump!"

[node name="CollisionShape2D" type="CollisionShape2D" parent="Message" index="1"]
shape = SubResource( 1 )

[node name="Message2" parent="." index="16" instance=ExtResource( 13 )]
editor/display_folded = true
visible = false
position = Vector2( 544, 168 )
message = "you can let go of the bullet and hold it again!"
message_time = 4.0

[node name="CollisionShape2D" type="CollisionShape2D" parent="Message2" index="1"]
shape = SubResource( 2 )

[editable path="Background"]

[editable path="Background2"]

[editable path="Blocks"]

[editable path="Platforms"]

[editable path="CameraLimiter"]
