[gd_scene load_steps=10 format=2]

[ext_resource path="res://ChargeKidFiles/Levels/AuxiliaryTools/BaseLevel.tscn" type="PackedScene" id=1]
[ext_resource path="res://ChargeKidFiles/Levels/Tilemaps/Background.tscn" type="PackedScene" id=2]
[ext_resource path="res://ChargeKidFiles/Levels/Tilemaps/Blocks.tscn" type="PackedScene" id=3]
[ext_resource path="res://ChargeKidFiles/Levels/Tilemaps/Platforms.tscn" type="PackedScene" id=4]
[ext_resource path="res://WorkshopFiles/Tilemaps/Spikes.tscn" type="PackedScene" id=5]
[ext_resource path="res://ChargeKidFiles/Actors/Player/Player.tscn" type="PackedScene" id=6]
[ext_resource path="res://WorkshopFiles/Interactables/Charge.tscn" type="PackedScene" id=7]
[ext_resource path="res://WorkshopFiles/AuxiliaryTools/FinishLine.tscn" type="PackedScene" id=8]
[ext_resource path="res://ChargeKidFiles/Menu/FinalScreen/FinalScreen.tscn" type="PackedScene" id=9]







[node name="Level08" index="0" instance=ExtResource( 1 )]

[node name="ScreenTransition" parent="." index="0"]
opening_text = "Level 8

The climb."

[node name="LevelLimits" parent="." index="1"]
tile_data = PoolIntArray( -1, 0, 0, -65536, 0, 0, -65535, 0, 0, -65534, 0, 0, -65533, 0, 0, -65532, 0, 0, -65531, 0, 0, -65530, 0, 0, -65529, 0, 0, -65528, 0, 0, -65527, 0, 0, -65526, 0, 0, -65525, 0, 0, -65524, 0, 0, -65523, 0, 0, -65522, 0, 0, -65521, 0, 0, -65520, 0, 0, -65519, 0, 0, -65518, 0, 0, -65517, 0, 0, -65516, 0, 0, -65515, 0, 0, -65514, 0, 0, -65513, 0, 0, -65512, 0, 0, -65511, 0, 0, -65510, 0, 0, -65509, 0, 0, -65508, 0, 0, -65507, 0, 0, -65506, 0, 0, -65505, 0, 0, -65504, 0, 0, 65535, 0, 0, 32, 0, 0, 131071, 0, 0, 65568, 0, 0, 196607, 0, 0, 131104, 0, 0, 262143, 0, 0, 196640, 0, 0, 327679, 0, 0, 262176, 0, 0, 393215, 0, 0, 327712, 0, 0, 458751, 0, 0, 393248, 0, 0, 524287, 0, 0, 458784, 0, 0, 589823, 0, 0, 524320, 0, 0, 655359, 0, 0, 589856, 0, 0, 720895, 0, 0, 655392, 0, 0, 786431, 0, 0, 720928, 0, 0, 851967, 0, 0, 786464, 0, 0, 917503, 0, 0, 852000, 0, 0, 983039, 0, 0, 917536, 0, 0, 1048575, 0, 0, 983072, 0, 0, 1114111, 0, 0, 1048608, 0, 0, 1179647, 0, 0, 1114144, 0, 0, 1245183, 0, 0, 1179680, 0, 0, 1310719, 0, 0, 1245216, 0, 0, 1376255, 0, 0, 1310752, 0, 0, 1441791, 0, 0, 1376288, 0, 0, 1507327, 0, 0, 1441824, 0, 0, 1572863, 0, 0, 1507360, 0, 0, 1638399, 0, 0, 1572864, 0, 0, 1572865, 0, 0, 1572866, 0, 0, 1572867, 0, 0, 1572868, 0, 0, 1572869, 0, 0, 1572870, 0, 0, 1572871, 0, 0, 1572872, 0, 0, 1572873, 0, 0, 1572874, 0, 0, 1572875, 0, 0, 1572876, 0, 0, 1572877, 0, 0, 1572878, 0, 0, 1572879, 0, 0, 1572880, 0, 0, 1572881, 0, 0, 1572882, 0, 0, 1572883, 0, 0, 1572884, 0, 0, 1572885, 0, 0, 1572886, 0, 0, 1572887, 0, 0, 1572888, 0, 0, 1572889, 0, 0, 1572890, 0, 0, 1572891, 0, 0, 1572892, 0, 0, 1572893, 0, 0, 1572894, 0, 0, 1572895, 0, 0, 1572896, 0, 0 )

[node name="Background" parent="." index="3" instance=ExtResource( 2 )]
editor/display_folded = true

[node name="Props1" parent="Background/WallProps" index="0"]
tile_data = PoolIntArray( -65532, 0, 0, -65528, 0, 0, -65524, 0, 0, -65520, 0, 0, -65516, 0, 0, -65512, 0, 0, -65508, 0, 0, 6, 0, 0, 10, 0, 0, 14, 0, 0, 18, 0, 0, 22, 0, 0, 26, 0, 0, 30, 0, 0, 65540, 0, 0, 65544, 0, 0, 65548, 0, 0, 65552, 0, 0, 65556, 0, 0, 65560, 0, 0, 65564, 0, 0, 131078, 0, 0, 131082, 0, 0, 131086, 0, 0, 131090, 0, 0, 131094, 0, 0, 131098, 0, 0, 131102, 0, 0, 196616, 0, 0, 196620, 0, 0, 196624, 0, 0, 196628, 0, 0, 196632, 0, 0, 196636, 0, 0, 262150, 0, 0, 262154, 0, 0, 262158, 0, 0, 327688, 0, 0, 327692, 0, 0, 327696, 0, 0, 393226, 0, 0, 393230, 0, 0, 458764, 0, 0, 458768, 0, 0, 524298, 0, 0, 524302, 0, 0, 589836, 0, 0, 589840, 0, 0, 655370, 0, 0, 655374, 0, 0, 720908, 0, 0, 720912, 0, 0, 786442, 0, 0, 786446, 0, 0, 851980, 0, 0, 851984, 0, 0, 917514, 0, 0, 917518, 0, 0, 983040, 0, 0, 983044, 0, 0, 983048, 0, 0, 983052, 0, 0, 983056, 0, 0, 1048578, 0, 0, 1048582, 0, 0, 1048586, 0, 0, 1048590, 0, 0, 1114112, 0, 0, 1114116, 0, 0, 1114120, 0, 0, 1114124, 0, 0, 1114128, 0, 0, 1179650, 0, 0, 1179654, 0, 0, 1179658, 0, 0, 1179662, 0, 0, 1245184, 0, 0, 1245188, 0, 0, 1245192, 0, 0, 1245196, 0, 0, 1245200, 0, 0, 1310722, 0, 0, 1310726, 0, 0, 1310730, 0, 0, 1310734, 0, 0 )

[node name="Props2" parent="Background/WallProps" index="1"]
tile_data = PoolIntArray( 13, 9, 0, 21, 10, 0, 22, 11, 0, 27, 9, 0, 1048583, 9, 0 )

[node name="Wire3" parent="Background/Wires" index="4"]
tile_data = PoolIntArray( 851985, 0, 262144, 851986, 0, 262146 )

[node name="Tube1" parent="Background/Tubes" index="0"]
tile_data = PoolIntArray( 7, 0, 196609, 17, 0, 196609, 65543, 0, 327680, 65551, 0, 393216, 65552, 0, 196608, 65553, 0, 524290, 131079, 0, 327680, 131087, 0, 327680, 196614, 0, 262144, 196615, 0, 524290, 196623, 0, 327680, 262159, 0, 327680, 327695, 0, 327680, 393231, 0, 327680, 458767, 0, 327680, 524303, 0, 327680, 589839, 0, 327680, 655375, 0, 327680, 720911, 0, 327680, 786447, 0, 327680, 851983, 0, 327680, 917519, 0, 327680, 983054, 0, 393216, 983055, 0, 524290, 1048578, 0, 196609, 1048590, 0, 327680, 1114114, 0, 327680, 1114125, 0, 327680, 1114126, 0, 327680, 1179650, 0, 327680, 1179661, 0, 196608, 1179662, 0, 327680, 1245186, 0, 327680, 1245189, 0, 262144, 1245190, 0, 196608, 1245191, 0, 393218, 1245197, 0, 327680, 1245198, 0, 327680, 1310722, 0, 327681, 1310727, 0, 327681, 1310733, 0, 327680, 1310734, 0, 327681 )

[node name="Tube2" parent="Background/Tubes" index="2"]
tile_data = PoolIntArray( 11, 0, 196609, 65541, 0, 262144, 65542, 0, 196608, 65543, 0, 196608, 65544, 0, 196608, 65545, 0, 196608, 65546, 0, 196608, 65547, 0, 524290, 1048581, 0, 196609, 1114117, 0, 327680, 1179648, 0, 262144, 1179649, 0, 196608, 1179650, 0, 196608, 1179651, 0, 393218, 1179653, 0, 524288, 1179654, 0, 393218, 1179659, 0, 393216, 1179660, 0, 196608, 1179661, 0, 327680, 1179662, 0, 196608, 1179663, 0, 196608, 1179664, 0, 262146, 1245187, 0, 524288, 1245188, 0, 262146, 1245190, 0, 327680, 1245195, 0, 327680, 1310726, 0, 327681, 1310731, 0, 327681 )

[node name="Props2" parent="Background/Tubes" index="3"]
tile_data = PoolIntArray( 1245190, 9, 0 )

[node name="Tube3" parent="Background/Tubes" index="4"]
tile_data = PoolIntArray( 24, 0, 196609, 65560, 0, 327680, 131077, 0, 262144, 131078, 0, 196608, 131079, 0, 196608, 131080, 0, 196608, 131081, 0, 196608, 131082, 0, 196608, 131083, 0, 196608, 131084, 0, 196608, 131085, 0, 196608, 131086, 0, 196608, 131087, 0, 196608, 131088, 0, 196608, 131089, 0, 196608, 131090, 0, 196608, 131091, 0, 196608, 131092, 0, 196608, 131093, 0, 196608, 131094, 0, 196608, 131095, 0, 196608, 131096, 0, 524290, 458766, 0, 393216, 458767, 0, 196608, 458768, 0, 262146, 524302, 0, 327680, 589838, 0, 327680, 655374, 0, 327680, 720910, 0, 327680, 786445, 0, 393216, 786446, 0, 524290, 851981, 0, 327680, 917517, 0, 327680, 983053, 0, 327680, 1048589, 0, 327681 )

[node name="Props3" parent="Background/Tubes" index="5"]
tile_data = PoolIntArray( 7, 9, 0, 11, 10, 0, 17, 10, 0, 24, 9, 0, 65541, 6, 0, 65547, 6, 0, 65552, 7, 0, 65560, 8, 0, 131077, 6, 0, 131079, 8, 0, 131083, 5, 0, 131087, 9, 0, 131092, 6, 0, 131095, 5, 0, 196614, 7, 0, 458767, 6, 0, 458768, 5, 0, 524302, 9, 0, 720910, 8, 0, 851981, 9, 0, 917519, 8, 0, 1048578, 9, 0, 1048581, 9, 0, 1048590, 9, 0, 1114117, 8, 0, 1179648, 6, 0, 1179650, 5, 0, 1179660, 6, 0, 1179664, 5, 0, 1245188, 6, 0, 1245190, 5, 0, 1245195, 9, 0, 1310726, 8, 0, 1310727, 10, 0, 1310731, 8, 0, 1310733, 8, 0, 1310734, 8, 0 )

[node name="Props1" parent="Background/GroundProps" index="0"]
tile_data = PoolIntArray( 196637, 22, 0 )

[node name="Blocks" parent="." index="4" instance=ExtResource( 3 )]
editor/display_folded = true

[node name="Blocks1" parent="Blocks" index="0"]
tile_data = PoolIntArray( 0, 4, 0, 1, 4, 2, 2, 10, 0, 3, 10, 0, 4, 14, 0, 65536, 4, 65536, 65537, 4, 65538, 65539, 536870956, 0, 131072, 4, 131072, 131073, 4, 131074, 262143, 1, 0, 196608, 2, 0, 196609, 2, 0, 196610, 1, 0, 196611, 2, 0, 196612, 1, 0, 196613, 3, 0, 196625, 4, 0, 196626, 4, 1, 196627, 4, 2, 327679, 10, 0, 262144, 10, 0, 262145, 10, 0, 262146, 10, 0, 262147, 10, 0, 262148, 10, 0, 262149, 14, 0, 262154, 22, 0, 262161, 4, 65536, 262162, 4, 65537, 262163, 4, 65538, 262170, 1, 0, 262171, 1, 0, 262172, 2, 0, 262173, 2, 0, 262174, 1, 0, 262175, 2, 0, 262176, 1, 0, 393215, 10, 0, 327680, 10, 0, 327681, 10, 0, 327682, 10, 0, 327683, 10, 0, 327684, 10, 0, 327685, 10, 0, 327686, 14, 0, 327690, 22, 0, 327697, 4, 65536, 327698, 4, 65537, 327699, 4, 65538, 327706, 13, 0, 327707, 13, 0, 327708, 11, 0, 327709, 11, 0, 327710, 11, 0, 327711, 11, 0, 393233, 4, 65536, 393234, 4, 65537, 393235, 4, 65538, 393242, 12, 0, 393243, 12, 0, 393244, 10, 0, 393245, 10, 0, 393246, 10, 0, 393247, 10, 0, 458769, 4, 65536, 458770, 4, 65537, 458771, 4, 65538, 458778, 1, 0, 458779, 1, 0, 458780, 1, 0, 458781, 1, 0, 458782, 1, 0, 458783, 1, 0, 458784, 2, 0, 524305, 4, 65536, 524306, 4, 65537, 524307, 4, 65538, 524310, 4, 0, 524311, 4, 1, 524312, 4, 1, 524313, 4, 2, 524315, 8, 0, 524316, 12, 0, 524317, 12, 0, 524318, 10, 0, 524319, 10, 0, 524320, 10, 0, 589824, 2, 0, 589825, 2, 0, 589826, 2, 0, 589827, 2, 0, 589828, 2, 0, 589829, 2, 0, 589830, 2, 0, 589831, 2, 0, 589832, 2, 0, 589833, 2, 0, 589834, 3, 0, 589841, 4, 65536, 589842, 4, 65537, 589843, 4, 65538, 589846, 4, 65536, 589847, 4, 65537, 589848, 4, 65537, 589849, 4, 65538, 589851, 9, 0, 589852, 13, 0, 589853, 13, 0, 589854, 11, 0, 589855, 11, 0, 589856, 11, 0, 655363, 44, 0, 655369, 536870956, 0, 655377, 4, 65536, 655378, 4, 65537, 655379, 4, 65538, 655382, 4, 65536, 655383, 4, 65537, 655384, 4, 65537, 655385, 4, 65538, 655390, 1, 0, 655391, 1, 0, 655392, 1, 0, 720913, 4, 65536, 720914, 4, 65537, 720915, 4, 65538, 720918, 4, 65536, 720919, 4, 65537, 720920, 4, 65537, 720921, 4, 65538, 720926, 4, 0, 720927, 4, 1, 720928, 4, 2, 786433, 4, 0, 786434, 4, 2, 786435, 44, 0, 786441, 536870956, 0, 786449, 4, 65536, 786450, 4, 65537, 786451, 4, 65538, 786454, 4, 65536, 786455, 4, 65537, 786456, 4, 65537, 786457, 4, 65538, 786462, 4, 65536, 786463, 4, 65537, 786464, 4, 65538, 851969, 4, 65536, 851970, 4, 65538, 851985, 4, 65536, 851986, 4, 65537, 851987, 4, 0, 851988, 4, 2, 851990, 4, 65536, 851991, 4, 65537, 851992, 4, 65537, 851993, 4, 65538, 851998, 4, 65536, 851999, 4, 65537, 852000, 4, 65538, 917505, 4, 131072, 917506, 4, 131074, 917507, 6, 0, 917508, 6, 1, 917509, 6, 1, 917510, 6, 1, 917511, 6, 1, 917512, 6, 1, 917513, 6, 1, 917514, 6, 2, 917521, 4, 65536, 917522, 4, 65537, 917523, 4, 65537, 917524, 4, 65538, 917526, 4, 65536, 917527, 4, 65537, 917528, 4, 65537, 917529, 4, 65538, 917534, 4, 131072, 917535, 4, 131073, 917536, 4, 131074, 983040, 2, 0, 983041, 2, 0, 983042, 2, 0, 983043, 2, 0, 983044, 2, 0, 983045, 2, 0, 983046, 2, 0, 983047, 2, 0, 983048, 2, 0, 983049, 2, 0, 983050, 3, 0, 983057, 4, 65536, 983058, 4, 65537, 983059, 4, 65537, 983060, 4, 65538, 983062, 4, 65536, 983063, 4, 65537, 983064, 4, 65537, 983065, 4, 65538, 1048593, 4, 65536, 1048594, 4, 65537, 1048595, 4, 65537, 1048596, 4, 65538, 1048598, 4, 65536, 1048599, 4, 65537, 1048600, 4, 65537, 1048601, 4, 65538, 1114129, 4, 65536, 1114130, 4, 65537, 1114131, 4, 65537, 1114132, 4, 65538, 1114134, 4, 65536, 1114135, 4, 65537, 1114136, 4, 65537, 1114137, 4, 65538, 1179665, 4, 65536, 1179666, 4, 65537, 1179667, 4, 65537, 1179668, 4, 65538, 1179670, 4, 65536, 1179671, 4, 65537, 1179672, 4, 65537, 1179673, 4, 65538, 1245201, 4, 65536, 1245202, 4, 65537, 1245203, 4, 65537, 1245204, 4, 65538, 1245206, 4, 131072, 1245207, 4, 131073, 1245208, 4, 131073, 1245209, 4, 131074, 1310737, 4, 131072, 1310738, 4, 131073, 1310739, 4, 131073, 1310740, 4, 131074 )

[node name="Blocks2" parent="Blocks" index="1"]
tile_data = PoolIntArray( 8, 22, 0, 10, 22, 0, 65544, 22, 0, 65546, 22, 0, 131080, 22, 0, 131082, 22, 0, 196616, 22, 0, 196618, 22, 0, 196628, 4, 0, 196629, 4, 1, 196630, 4, 1, 196631, 4, 1, 196632, 4, 1, 196633, 4, 2, 262152, 22, 0, 262164, 4, 65536, 262165, 4, 65537, 262166, 4, 65537, 262167, 4, 65537, 262168, 4, 65537, 262169, 4, 65538, 327688, 22, 0, 327700, 4, 65536, 327701, 4, 65537, 327702, 4, 65537, 327703, 4, 65537, 327704, 4, 65537, 327705, 4, 65538, 458751, 4, 0, 393216, 4, 1, 393217, 4, 1, 393218, 4, 1, 393219, 4, 1, 393220, 4, 1, 393221, 4, 1, 393222, 4, 1, 393223, 4, 1, 393224, 4, 1, 393225, 4, 1, 393226, 4, 2, 393236, 4, 131072, 393237, 4, 131073, 393238, 4, 131073, 393239, 4, 131073, 393240, 4, 131073, 393241, 4, 131074, 524287, 4, 65536, 458752, 4, 65537, 458753, 4, 65537, 458754, 4, 65537, 458755, 4, 65537, 458756, 4, 65537, 458757, 4, 65537, 458758, 4, 65537, 458759, 4, 65537, 458760, 4, 65537, 458761, 4, 65537, 458762, 4, 65538, 458772, 2, 0, 458773, 1, 0, 458774, 1, 0, 458775, 2, 0, 458776, 2, 0, 458777, 1, 0, 589823, 4, 131072, 524288, 4, 131073, 524289, 4, 131073, 524290, 4, 131073, 524291, 4, 131073, 524292, 4, 131073, 524293, 4, 131073, 524294, 4, 131073, 524295, 4, 131073, 524296, 4, 131073, 524297, 4, 131073, 524298, 4, 131074, 524308, 4, 0, 524309, 4, 1, 524310, 4, 1, 524311, 4, 1, 524312, 4, 1, 524313, 4, 2, 524314, 16, 0, 589844, 4, 65536, 589845, 4, 65537, 589846, 4, 65537, 589847, 4, 65537, 589848, 4, 65537, 589849, 4, 65538, 589850, 17, 0, 655366, 4, 0, 655367, 4, 2, 655380, 4, 65536, 655381, 4, 65537, 655382, 4, 65537, 655383, 4, 65537, 655384, 4, 65537, 655385, 4, 65538, 720902, 4, 65536, 720903, 4, 65538, 720916, 4, 65536, 720917, 4, 65537, 720918, 4, 65537, 720919, 4, 65537, 720920, 4, 65537, 720921, 4, 65538, 786432, 21, 0, 786438, 4, 65536, 786439, 4, 65538, 786452, 4, 131072, 786453, 4, 131073, 786454, 4, 131073, 786455, 4, 131073, 786456, 4, 131073, 786457, 4, 131074, 851968, 18, 0, 851974, 4, 65536, 851975, 4, 65538, 851992, 1, 0, 851993, 2, 0, 917504, 19, 0, 917510, 4, 131072, 917511, 4, 131074 )

[node name="Blocks3" parent="Blocks" index="2"]
tile_data = PoolIntArray( 327712, 11, 0, 393248, 10, 0, 524311, 22, 0, 589847, 22, 0, 655360, 4, 0, 655361, 4, 1, 655362, 4, 2, 655383, 22, 0, 655386, 24, 0, 655387, 41, 0, 655388, 40, 0, 655389, 25, 0, 720896, 4, 131072, 720897, 4, 131073, 720898, 4, 131074, 720919, 22, 0, 720922, 26, 0, 720923, 37, 0, 720924, 37, 0, 720925, 27, 0, 786455, 22, 0, 786458, 26, 0, 786459, 37, 0, 786460, 37, 0, 786461, 27, 0, 851987, 24, 0, 851988, 40, 0, 851989, 39, 0, 851990, 41, 0, 851991, 25, 0, 851994, 26, 0, 851995, 37, 0, 851996, 37, 0, 851997, 27, 0, 917523, 26, 0, 917524, 37, 0, 917525, 37, 0, 917526, 37, 0, 917527, 27, 0, 917530, 26, 0, 917531, 37, 0, 917532, 37, 0, 917533, 27, 0, 983059, 26, 0, 983060, 37, 0, 983061, 37, 0, 983062, 37, 0, 983063, 27, 0, 983066, 26, 0, 983067, 37, 0, 983068, 24, 0, 983069, 40, 0, 983070, 43, 0, 983071, 38, 0, 983072, 43, 0, 1048595, 26, 0, 1048596, 37, 0, 1048597, 37, 0, 1048598, 37, 0, 1048599, 27, 0, 1048602, 26, 0, 1048603, 37, 0, 1048604, 26, 0, 1048605, 37, 0, 1048606, 37, 0, 1048607, 37, 0, 1048608, 37, 0, 1114131, 26, 0, 1114132, 37, 0, 1114133, 37, 0, 1114134, 37, 0, 1114135, 27, 0, 1114138, 26, 0, 1114139, 37, 0, 1114140, 26, 0, 1114141, 37, 0, 1114142, 37, 0, 1114143, 37, 0, 1114144, 37, 0, 1179667, 26, 0, 1179668, 37, 0, 1179669, 37, 0, 1179670, 37, 0, 1179671, 27, 0, 1179674, 26, 0, 1179675, 37, 0, 1179676, 26, 0, 1179677, 37, 0, 1179678, 37, 0, 1179679, 37, 0, 1179680, 37, 0, 1245203, 26, 0, 1245204, 37, 0, 1245205, 37, 0, 1245206, 24, 0, 1245207, 40, 0, 1245208, 43, 0, 1245209, 38, 0, 1245210, 26, 0, 1245211, 37, 0, 1245212, 26, 0, 1245213, 37, 0, 1245214, 37, 0, 1245215, 37, 0, 1245216, 37, 0, 1310739, 26, 0, 1310740, 37, 0, 1310741, 37, 0, 1310742, 26, 0, 1310743, 37, 0, 1310744, 37, 0, 1310745, 37, 0, 1310746, 26, 0, 1310747, 37, 0, 1310748, 26, 0, 1310749, 37, 0, 1310750, 37, 0, 1310751, 37, 0, 1310752, 37, 0, 1441790, 40, 0, 1441791, 43, 0, 1376256, 38, 0, 1376257, 536870952, 0, 1376258, 536870953, 0, 1376259, 40, 0, 1376260, 42, 0, 1376261, 41, 0, 1376262, 40, 0, 1376263, 43, 0, 1376264, 38, 0, 1376265, 43, 0, 1376266, 39, 0, 1376267, 41, 0, 1376268, 536870951, 0, 1376269, 536870950, 0, 1376270, 536870952, 0, 1376271, 39, 0, 1376272, 41, 0, 1376273, 40, 0, 1376274, 42, 0, 1376275, 43, 0, 1376276, 40, 0, 1376277, 38, 0, 1376278, 26, 0, 1376279, 37, 0, 1376280, 37, 0, 1376281, 37, 0, 1376282, 26, 0, 1376283, 37, 0, 1376284, 26, 0, 1376285, 37, 0, 1376286, 37, 0, 1376287, 37, 0, 1376288, 37, 0, 1507326, 37, 0, 1507327, 37, 0, 1441792, 37, 0, 1441793, 37, 0, 1441794, 37, 0, 1441795, 37, 0, 1441796, 37, 0, 1441797, 37, 0, 1441798, 37, 0, 1441799, 37, 0, 1441800, 37, 0, 1441801, 37, 0, 1441802, 37, 0, 1441803, 37, 0, 1441804, 37, 0, 1441805, 37, 0, 1441806, 37, 0, 1441807, 37, 0, 1441808, 37, 0, 1441809, 37, 0, 1441810, 37, 0, 1441811, 37, 0, 1441812, 37, 0, 1441813, 37, 0, 1441814, 26, 0, 1441815, 37, 0, 1441816, 37, 0, 1441817, 37, 0, 1441818, 26, 0, 1441819, 37, 0, 1441820, 26, 0, 1441821, 37, 0, 1441822, 37, 0, 1441823, 37, 0, 1441824, 37, 0, 1572862, 37, 0, 1572863, 37, 0, 1507328, 37, 0, 1507329, 37, 0, 1507330, 37, 0, 1507331, 37, 0, 1507332, 37, 0, 1507333, 37, 0, 1507334, 37, 0, 1507335, 37, 0, 1507336, 37, 0, 1507337, 37, 0, 1507338, 37, 0, 1507339, 37, 0, 1507340, 37, 0, 1507341, 37, 0, 1507342, 37, 0, 1507343, 37, 0, 1507344, 37, 0, 1507345, 37, 0, 1507346, 37, 0, 1507347, 37, 0, 1507348, 37, 0, 1507349, 37, 0, 1507350, 26, 0, 1507351, 37, 0, 1507352, 37, 0, 1507353, 37, 0, 1507354, 26, 0, 1507355, 37, 0, 1507356, 26, 0, 1507357, 37, 0, 1507358, 37, 0, 1507359, 37, 0, 1507360, 37, 0 )

[node name="BlockProps" parent="Blocks" index="3"]
tile_data = PoolIntArray( 196625, 6, 0, 196626, 7, 0, 196627, 8, 0, 196628, 6, 0, 196629, 7, 0, 196630, 7, 0, 196631, 7, 0, 196632, 7, 0, 196633, 8, 0, 262170, 7, 0, 262171, 7, 0, 262172, 7, 0, 262173, 7, 0, 262174, 7, 0, 262175, 7, 0, 262176, 7, 0, 1048576, 3, 0, 1048577, 0, 0, 1048578, 1, 0, 1048579, 2, 0, 1048580, 1, 0, 1048581, 0, 0, 1048582, 2, 0, 1048583, 0, 0, 1048584, 1, 0, 1048585, 3, 0, 1048586, 2, 0 )

[node name="Tubes1" parent="Blocks" index="4"]
tile_data = PoolIntArray( 851998, 0, 196608, 851999, 0, 196608, 852000, 0, 196608, 917529, 0, 0, 917534, 0, 262144, 917535, 0, 196608, 917536, 0, 262146, 983065, 0, 327680, 1048601, 0, 327680, 1114137, 0, 327680, 1245204, 0, 393216, 1245205, 0, 262146, 1310740, 0, 327681 )

[node name="Tubes2" parent="Blocks" index="6"]
tile_data = PoolIntArray( 1048600, 0, 196608, 1048601, 0, 196608, 1114136, 0, 196608, 1114137, 0, 196608, 1179672, 0, 2, 1179673, 0, 327680, 1310738, 0, 0, 1310739, 0, 196608, 1310740, 0, 196608, 1310741, 0, 262146 )

[node name="TubeProps2" parent="Blocks" index="7"]
tile_data = PoolIntArray( 1179672, 7, 0, 1179673, 6, 0, 1245205, 7, 0, 1310738, 6, 0, 1310739, 7, 0, 1310740, 10, 0 )

[node name="Tubes3" parent="Blocks" index="8"]
tile_data = PoolIntArray( 1114137, 0, 327680 )

[node name="TubeProps3" parent="Blocks" index="9"]
tile_data = PoolIntArray( 851998, 7, 0, 917529, 5, 0, 917534, 7, 0, 983065, 8, 0, 1048600, 7, 0, 1048601, 5, 0, 1114136, 7, 0, 1114137, 5, 0, 1179672, 6, 0, 1179673, 4, 0 )

[node name="Platforms" parent="." index="5" instance=ExtResource( 4 )]
editor/display_folded = true

[node name="Spikes" parent="." index="6" instance=ExtResource( 5 )]

[node name="Player" parent="." index="7" instance=ExtResource( 6 )]
position = Vector2( 64, 328 )

[node name="FuelTank" parent="." index="8" instance=ExtResource( 7 )]
position = Vector2( 256, 328 )

[node name="FinishLine" parent="." index="9" instance=ExtResource( 8 )]
editor/display_folded = true
visible = false
position = Vector2( 480, 40 )
next_stage = ExtResource( 9 )

[node name="CollisionPolygon2D" type="CollisionPolygon2D" parent="FinishLine" index="0"]
polygon = PoolVector2Array( 32, 24, 32, 8, 0, 8, 0, 24 )

[editable path="Background"]

[editable path="Blocks"]

[editable path="Platforms"]
