[gd_scene load_steps=5 format=2]

[ext_resource path="res://ChargeKidFiles/Levels/AuxiliaryTools/BaseLevel.gd" type="Script" id=1]
[ext_resource path="res://ChargeKidFiles/Levels/AuxiliaryTools/ScreenTransition.tscn" type="PackedScene" id=2]
[ext_resource path="res://WorkshopFiles/AuxiliaryTools/LevelLimits.tscn" type="PackedScene" id=3]
[ext_resource path="res://ChargeKidFiles/Levels/AuxiliaryTools/PlayerCamera.gd" type="Script" id=4]


[node name="BaseLevel" type="Node2D" groups=[
"level",
]]
pause_mode = 1
script = ExtResource( 1 )

[node name="ScreenTransition" parent="." instance=ExtResource( 2 )]
editor/display_folded = true

[node name="LevelLimits" parent="." instance=ExtResource( 3 )]
visible = false
format = 1

[node name="PlayerCamera" type="Camera2D" parent="." groups=[
"camera",
]]
current = true
zoom = Vector2( 0.5, 0.5 )
process_mode = 0
limit_left = 0
limit_top = 0
limit_bottom = 384
smoothing_enabled = true
smoothing_speed = 3.0
editor_draw_limits = true
script = ExtResource( 4 )
